Versions of Cohen’s d for dependent data
…
Most extreme difference in means

Determinism - Free will: abs(mean_x - mean_y) = 3.80

summary |>
  rowwise() |>
  mutate(abs_diff = abs(mean_x - mean_y)) |>
  arrange(desc(abs_diff))

## # A tibble: 95 × 9
## # Rowwise: 
##    domain                     r     n mean_x mean_y  sd_x  sd_y   r_abs abs_diff
##    <chr>                  <dbl> <int>  <dbl>  <dbl> <dbl> <dbl>   <dbl>    <dbl>
##  1 Determinism - Free… -3.54e-1  1171   4.38   8.18  2.31  1.76 3.54e-1     3.80
##  2 National Defense -…  2.90e-4  1405   5.33   8.86  2.57  1.60 2.90e-4     3.53
##  3 Punishment - Forgi… -3.66e-1  1232   4.66   8.03  2.23  1.85 3.66e-1     3.38
##  4 Astrology - Science -2.25e-1  1537   4.88   7.90  2.50  1.99 2.25e-1     3.01
##  5 Gun Control - Gun … -6.82e-1  1091   7.30   4.34  2.61  2.77 6.82e-1     2.96
##  6 Chaos - Order       -5.48e-1  1388   4.43   7.30  2.23  2.00 5.48e-1     2.87
##  7 Evolution - Creati… -6.90e-1  1377   7.47   4.71  2.69  3.21 6.90e-1     2.76
##  8 Avoiding - Approac… -5.40e-1  1052   4.36   7.11  2.04  1.94 5.40e-1     2.75
##  9 Conservatives - Li… -6.19e-1  1144   4.21   6.94  2.32  2.22 6.19e-1     2.73
## 10 Republicans - Demo… -5.38e-1  1269   4.01   6.59  2.44  2.18 5.38e-1     2.57
## # ℹ 85 more rows
…
Difference in means close to zero

Effort - Talent: abs(mean_x - mean_y) = .01

summary |>
  rowwise() |>
  mutate(abs_diff = abs(mean_x - mean_y)) |>
  arrange(abs_diff)

## # A tibble: 95 × 9
## # Rowwise: 
##    domain                      r     n mean_x mean_y  sd_x  sd_y  r_abs abs_diff
##    <chr>                   <dbl> <int>  <dbl>  <dbl> <dbl> <dbl>  <dbl>    <dbl>
##  1 Difficult - Simple    -0.219   1140   6.47   6.48  1.92  2.03 0.219   0.00526
##  2 Organized Labor - Ma… -0.206   1040   5.89   5.92  2.13  2.07 0.206   0.0269 
##  3 Effort - Talent        0.218   1269   8.01   7.97  2.03  1.87 0.218   0.0370 
##  4 Protein - Carbohydra…  0.265   1264   7.12   7.06  2.00  2.11 0.265   0.0562 
##  5 West Coast - East Co…  0.0752  1283   6.90   6.97  2.13  2.05 0.0752  0.0733 
##  6 Old People - Young P…  0.373   1505   6.98   7.05  1.91  1.83 0.373   0.0764 
##  7 Friends - Family       0.294   1609   8.04   7.96  1.65  2.08 0.294   0.0839 
##  8 Burger King - McDona…  0.463   1378   4.77   4.68  2.27  2.43 0.463   0.0885 
##  9 Realism - Idealism    -0.122   1214   6.78   6.89  1.92  2.06 0.122   0.110  
## 10 Lord of the Rings - …  0.215   1402   7.12   6.94  2.53  2.49 0.215   0.182  
## # ℹ 85 more rows
…
Smallest average SD

Manufactured - Natural: mean(c(sd_x, sd_y)) = 1.78

summary |>
  rowwise() |>
  mutate(average_sd = mean(c(sd_x, sd_y))) |>
  arrange(average_sd)

## # A tibble: 95 × 9
## # Rowwise: 
##    domain                   r     n mean_x mean_y  sd_x  sd_y   r_abs average_sd
##    <chr>                <dbl> <int>  <dbl>  <dbl> <dbl> <dbl>   <dbl>      <dbl>
##  1 Manufactured - N… -0.0246   1266   5.80   7.94  1.85  1.69 0.0246        1.77
##  2 Technology - Nat…  0.121    1473   7.12   8.53  1.97  1.61 0.121         1.79
##  3 Athletic People …  0.299    1447   6.87   8.23  2.00  1.59 0.299         1.80
##  4 Innocence - Wisd…  0.189    1467   6.80   8.63  2.10  1.52 0.189         1.81
##  5 Rich People - Be…  0.436    1453   5.50   6.32  1.86  1.78 0.436         1.82
##  6 Poor People - Ri…  0.00966  1371   5.90   5.56  1.77  1.89 0.00966       1.83
##  7 Receiving - Givi…  0.153    1214   7.19   8.46  2.06  1.61 0.153         1.83
##  8 Speed - Accuracy   0.196    1237   6.70   8.46  1.98  1.71 0.196         1.85
##  9 Security - Freed…  0.166    1267   6.96   8.70  2.18  1.54 0.166         1.86
## 10 Friends - Family   0.294    1609   8.04   7.96  1.65  2.08 0.294         1.86
## # ℹ 85 more rows
…
Largest difference between estimates

National Defense - Education: max_estimate / min_estimate = 2.68

results_unnested |>
  group_by(domain) |>
  summarize(min_estimate = min(estimate),
            max_estimate = max(estimate)) |>
  mutate(diff_max_min = max_estimate - min_estimate,
         proportion_max_min = max_estimate / min_estimate) |>
  arrange(desc(proportion_max_min)) |>
  mutate_if(is.numeric, janitor::round_half_up, digits = 2)

## # A tibble: 95 × 5
##    domain              min_estimate max_estimate diff_max_min proportion_max_min
##    <chr>                      <dbl>        <dbl>        <dbl>              <dbl>
##  1 National Defense -…         0.82         2.21         1.39               2.68
##  2 Security - Freedom          0.46         1.13         0.67               2.45
##  3 Innocence - Wisdom          0.5          1.2          0.7                2.41
##  4 Money - Love                0.46         1.1          0.64               2.37
##  5 Japan - United Sta…         0.14         0.33         0.19               2.37
##  6 Determinism - Free…         0.93         2.16         1.23               2.33
##  7 Team - Individual           0.43         0.99         0.56               2.33
##  8 Gay People - Strai…         0.25         0.58         0.33               2.31
##  9 Receiving - Giving          0.34         0.79         0.45               2.3 
## 10 Capital Punishment…         0.38         0.87         0.49               2.27
## # ℹ 85 more rows
…
